{
    "product" : [
        {
            "id" : 1,
            "name" : "Bonggol",
            "Description" : "Pencil you can stab with someone",
            "price" : 99,
            "stocks" : 100000000,
            "isActive" : true,
            "SKU" : "00123-12334-12312"
        },
        {
            "id" : 2,
            "name" : "Longgol",
            "Description" : "Ball pen you can stab with someone",
            "price" : 1,
            "stocks" : 100000000,
            "isActive" : true,
            "SKU" : "00123-12334-sd212"
        }
    ]
}
